// Jest Snapshot v1, https://goo.gl/fbAQLP

exports[`KubosManage should create: initial 1`] = `
<div
  class="w3-container app-kubos-box"
>
  <div
    class="w3-row w3-section"
  >
    Share this URL with your colleagues:
  </div>
  <div
    class="w3-row w3-section"
  >
    <div
      class="w3-col app-copy-icon"
    >
      <button
        title="Copy"
      >
        <font-awesome-icon-stub
          icon="fas,copy"
        />
      </button>
    </div>
    <div
      class="w3-rest"
    >
      <a
        href="https://www/kubos/anId"
        id="user-link"
        target="_blank"
      >
        https://www/kubos/anId
      </a>
    </div>
  </div>
  <div
    class="w3-row w3-section"
  >
     Write down this URL to manage and view this Kubos Channel: 
  </div>
  <div
    class="w3-row w3-section"
  >
    <div
      class="w3-col app-copy-icon"
    >
      <button
        title="Copy"
      >
        <font-awesome-icon-stub
          icon="fas,copy"
        />
      </button>
    </div>
    <div
      class="w3-rest"
    >
      <a
        href="https://www/kubos/anId?key=aKey"
        id="owner-link"
      >
        https://www/kubos/anId?key=aKey
      </a>
    </div>
  </div>
  <p
    class="w3-center"
  >
    <button
      class="w3-btn w3-theme"
      disabled=""
      id="kubos-delete"
      type="button"
    >
      <font-awesome-icon-stub
        icon="fas,trash"
      />
    </button>
    <label
      class="w3-small"
      for="kubos-delete-confirm"
    >
       Confirm delete: 
    </label>
    <input
      class="w3-check"
      id="kubos-delete-confirm"
      type="checkbox"
    />
  </p>
</div>
`;
