{
	"name": "kubos",
	"dockerComposeFile": ["docker-compose.yml"],
	"service": "kubos",
	"runServices": ["kubos", "mongo", "mongo-express"],
	"workspaceFolder": "/kubos",
	"extensions": [
		"eamodio.gitlens",
		"dariofuzinato.vue-peek",
		"Vue.volar"
	],
	"shutdownAction": "stopCompose",
	"settings":{
		"files.associations": {
			"Dockerfile*": "dockerfile"
		},
		"php.suggest.basic": false,
		"terminal.integrated.fontSize": 16,
		"remote.extensionKind": {
			"ms-azuretools.vscode-docker": "ui"
		}
	}
}
