// Jest Snapshot v1, https://goo.gl/fbAQLP

exports[`App should create with version: initial 1`] = `
<div
  id="app"
>
  <header
    class="w3-top w3-bar w3-theme-d4"
  >
    <div
      class="w3-left"
    >
      <router-link-stub
        to="/"
      />
    </div>
    <div
      class="w3-right"
    >
      <a
        href="https://gitlab.com/javier-sedano/kubos"
      >
        <button
          aria-label="Contact"
          class="w3-bar-item w3-button w3-xlarge w3-hover-theme"
        >
          <font-awesome-icon-stub
            aria-hidden="true"
            icon="fab,gitlab"
          />
        </button>
      </a>
      <a
        href="https://jsedano.duckdns.org/contact.html"
      >
        <button
          aria-label="Source"
          class="w3-bar-item w3-button w3-xlarge w3-hover-theme"
        >
          <font-awesome-icon-stub
            aria-hidden="true"
            icon="fas,envelope"
          />
        </button>
      </a>
      <router-link-stub
        to="/"
      />
    </div>
  </header>
  <error-render-stub />
  <div
    class="w3-padding w3-text-theme w3-display-container app-main-content"
  >
    <router-view-stub />
  </div>
  <footer
    class="w3-container w3-bottom w3-theme-d4 w3-margin-top w3-bar"
  >
    <div
      class="w3-left app-footer-version"
    >
       Version 1.2.3
    </div>
    <div
      class="w3-right app-footer-copyright"
    >
      <router-link-stub
        to="/privacy"
      />
      <font-awesome-icon-stub
        icon="fas,copyright"
      />
      Javier Sedano 2020-2022, 
      <font-awesome-icon-stub
        icon="fab,creative-commons"
      />
      <font-awesome-icon-stub
        icon="fab,creative-commons-by"
      />
      <font-awesome-icon-stub
        icon="fab,creative-commons-sa"
      />
      <a
        href="https://creativecommons.org/licenses/by-sa/4.0/legalcode"
      >
        CC-BY-SA-4.0
      </a>
    </div>
  </footer>
</div>
`;
